Kruskal1
1ms
124
2 5 2
1 2 4
4 9 6
1 4 17
6 8 10
1 8 17
7 10 18
6 10 20
3 10 30
Kruskal2
58ms
192
24 29 3
24 34 4
3 7 4
2 47 3
1 11 2
33 49 1
14 49 2
6 27 1
27 37 1
27 43 2
30 43 2
28 39 1
10 28 2
6 10 3
10 50 3
14 28 3
1 37 4
2 11 4
2 22 4
11 41 4
38 48 3
26 48 4
28 48 4
1 5 5
7 37 5
7 40 5
11 13 5
14 23 5
15 38 5
19 30 5
19 35 5
24 47 5
9 16 1
21 25 1
8 21 3
16 25 4
44 45 3
16 44 4
7 9 6
17 42 4
42 46 4
20 46 5
16 17 6
18 19 6
22 31 6
36 50 6
21 32 7
3 12 8
4 9 9
Kruskal3
109ms
153
28 38 1
42 73 1
41 42 2
34 40 1
5 93 1
34 93 1
34 79 2
40 59 2
35 45 1
25 35 2
21 91 1
15 97 1
21 97 1
19 72 1
15 19 2
64 82 1
6 17 1
12 31 1
12 52 1
17 52 1
11 36 1
11 63 1
17 63 1
17 86 1
39 57 1
39 89 1
43 89 1
57 83 1
57 95 1
63 95 1
64 86 1
10 32 1
8 22 1
3 70 1
7 23 1
7 49 1
18 23 1
2 16 1
2 30 1
18 30 1
18 77 1
61 77 1
67 77 1
3 77 2
8 18 2
10 22 2
29 56 1
37 56 1
44 56 1
44 65 1
51 58 1
51 69 1
56 58 1
24 46 1
24 74 1
65 74 1
69 76 1
26 96 1
76 96 1
10 24 2
11 65 2
15 63 2
47 85 1
16 85 2
19 98 2
25 61 2
30 48 2
1 60 1
31 60 2
33 71 2
39 71 2
40 91 2
41 89 2
48 55 2
54 98 2
66 68 1
55 66 2
4 78 2
59 78 2
60 75 2
9 14 1
9 62 1
61 62 2
65 92 2
67 81 2
78 84 2
88 95 2
13 46 3
20 36 3
20 50 3
28 55 3
28 90 3
33 80 3
27 53 1
27 94 1
39 53 3
63 87 3
14 99 4
46 100 5
Kruskal4
0ms
343
6 7 8
7 8 47
9 1 1
3 5 16
1 3 22
2 3 52
7 9 54
4 5 64
9 10 79
Kruskal5
1ms
1719
45 46 35
43 45 49
47 49 12
47 48 15
49 50 33
46 47 58
1 3 7
4 5 9
3 4 42
6 7 10
7 8 19
8 9 43
5 6 47
11 12 28
10 11 36
9 10 54
13 15 8
13 14 13
12 13 55
17 18 12
15 17 56
16 17 60
50 1 65
19 21 50
19 20 57
18 19 69
23 25 3
25 26 4
24 25 16
27 29 20
25 27 25
30 31 2
31 32 15
31 33 18
34 35 3
35 36 6
33 34 25
29 30 37
28 29 48
37 38 30
39 41 5
39 40 15
38 39 48
36 37 62
21 23 75
22 23 77
1 2 78
44 45 82
41 42 83
Kruskal6
15ms
4236
46 47 8
47 48 28
48 49 57
50 51 12
53 55 52
55 56 60
57 58 6
59 61 34
61 63 38
62 63 39
60 61 42
58 59 49
63 64 51
55 57 60
65 66 60
63 65 68
53 54 71
67 68 1
68 69 31
72 73 16
71 72 22
69 71 31
74 75 11
73 75 53
77 78 34
76 77 61
75 76 67
79 81 41
80 81 55
77 79 67
83 85 42
82 83 48
83 84 49
86 87 48
87 88 56
85 87 58
81 82 68
70 71 79
66 67 80
52 53 81
51 52 82
89 90 63
87 89 84
93 94 5
94 95 24
91 93 48
92 93 65
96 97 42
98 99 36
99 100 46
97 99 64
95 97 82
1 3 13
4 5 26
3 4 32
6 7 8
5 6 36
1 2 45
8 9 15
9 10 33
7 8 48
13 14 2
12 13 13
14 15 15
19 20 9
20 21 9
17 19 18
15 17 32
11 12 35
23 24 1
22 23 17
24 25 25
21 23 38
25 26 42
27 29 11
30 31 24
29 31 25
28 29 27
31 32 41
26 27 44
35 36 21
37 38 15
37 39 22
36 37 41
33 35 56
31 33 57
34 35 59
42 43 19
41 42 47
39 41 60
43 45 64
43 44 65
16 17 71
10 11 72
40 41 73
17 18 74
99 1 85
90 91 86
49 50 90
Prim 1
1ms
124
1 2 4
2 5 2
1 4 17
4 9 6
1 8 17
6 8 10
6 10 20
7 10 18
3 10 30
Prim 2
34ms
192
1 11 2
1 37 4
27 37 1
6 27 1
27 43 2
30 43 2
6 10 3
10 28 2
28 39 1
10 50 3
14 28 3
14 49 2
33 49 1
30 41 4
2 11 4
2 47 3
28 48 4
38 48 3
2 22 4
26 48 4
14 23 5
19 30 5
19 35 5
24 47 5
24 29 3
24 34 4
7 37 5
3 7 4
7 40 5
11 13 5
15 38 5
1 5 5
7 9 6
9 16 1
16 25 4
21 25 1
8 21 3
16 44 4
44 45 3
20 34 6
20 46 5
42 46 4
17 42 4
18 19 6
22 31 6
36 50 6
29 32 7
12 18 8
4 9 9
Prim 3
15ms
153
1 60 1
31 60 2
12 31 1
12 52 1
17 52 1
6 17 1
17 63 1
17 86 1
11 63 1
63 95 1
64 86 1
11 36 1
64 82 1
57 95 1
39 57 1
57 83 1
39 89 1
43 89 1
15 63 2
15 97 1
21 97 1
21 91 1
40 91 2
34 40 1
34 93 1
5 93 1
85 91 2
47 85 1
40 59 2
92 93 2
34 79 2
16 85 2
2 16 1
2 30 1
18 30 1
18 23 1
18 77 1
7 23 1
61 77 1
67 77 1
7 49 1
59 78 2
65 92 2
44 65 1
65 74 1
44 56 1
24 74 1
29 56 1
37 56 1
56 58 1
24 46 1
51 58 1
51 69 1
69 76 1
76 96 1
26 96 1
81 92 2
10 24 2
10 32 1
22 24 2
8 22 1
74 75 2
71 74 2
25 76 2
33 71 2
41 89 2
25 35 2
35 45 1
41 42 2
42 73 1
30 48 2
48 55 2
59 72 2
19 72 1
55 66 2
66 68 1
19 98 2
3 77 2
3 70 1
54 98 2
61 62 2
9 62 1
9 14 1
88 95 2
4 78 2
78 84 2
20 36 3
44 80 3
87 91 3
20 50 3
50 90 3
28 90 3
28 38 1
13 46 3
39 53 3
27 53 1
27 94 1
14 99 4
46 100 5
Prim 4
0ms
343
9 1 1
1 3 22
3 5 16
2 3 52
7 9 54
6 7 8
7 8 47
4 5 64
9 10 79
Prim 5
1ms
1719
1 3 7
3 4 42
4 5 9
5 6 47
6 7 10
7 8 19
8 9 43
9 10 54
10 11 36
11 12 28
12 13 55
13 15 8
13 14 13
15 17 56
17 18 12
16 17 60
50 1 65
49 50 33
47 49 12
47 48 15
46 47 58
45 46 35
43 45 49
18 19 69
19 21 50
19 20 57
21 23 75
23 25 3
25 26 4
24 25 16
25 27 25
27 29 20
29 30 37
30 31 2
31 32 15
31 33 18
33 34 25
34 35 3
35 36 6
28 29 48
36 37 62
37 38 30
38 39 48
39 41 5
39 40 15
22 23 77
1 2 78
44 45 82
41 42 83
Prim 6
1ms
4236
1 3 13
3 4 32
4 5 26
5 6 36
6 7 8
1 2 45
7 8 48
8 9 15
9 10 33
10 11 72
11 12 35
12 13 13
13 14 2
14 15 15
15 17 32
17 19 18
19 20 9
20 21 9
21 23 38
23 24 1
22 23 17
24 25 25
25 26 42
26 27 44
27 29 11
29 31 25
30 31 24
28 29 27
31 32 41
31 33 57
33 35 56
35 36 21
36 37 41
37 38 15
37 39 22
34 35 59
39 41 60
41 42 47
42 43 19
43 45 64
43 44 65
16 17 71
40 41 73
17 18 74
99 1 85
98 99 36
99 100 46
97 99 64
96 97 42
95 97 82
94 95 24
93 94 5
91 93 48
92 93 65
90 91 86
89 90 63
87 89 84
86 87 48
87 88 56
85 87 58
83 85 42
82 83 48
83 84 49
81 82 68
79 81 41
80 81 55
77 79 67
77 78 34
76 77 61
75 76 67
74 75 11
73 75 53
72 73 16
71 72 22
69 71 31
68 69 31
67 68 1
70 71 79
66 67 80
65 66 60
63 65 68
61 63 38
59 61 34
62 63 39
60 61 42
58 59 49
57 58 6
63 64 51
55 57 60
53 55 52
55 56 60
53 54 71
52 53 81
51 52 82
50 51 12
49 50 90
48 49 57
47 48 28
46 47 8
EOF