k5
5
1 2 47
1 3 67
1 4 83
1 5 60
2 3 84
2 4 75
2 5 53
3 4 35
3 5 39
4 5 83
k10
10
1 2 38
1 3 29
1 4 57
1 5 33
1 6 77
1 7 4
1 8 16
1 9 57
1 10 67
2 3 80
2 4 33
2 5 80
2 6 86
2 7 79
2 8 79
2 9 52
2 10 23
3 4 23
3 5 29
3 6 42
3 7 80
3 8 86
3 9 60
3 10 21
4 5 24
4 6 63
4 7 52
4 8 55
4 9 83
4 10 96
5 6 84
5 7 24
5 8 6
5 9 22
5 10 84
6 7 54
6 8 6
6 9 54
6 10 48
7 8 33
7 9 12
7 10 24
8 9 67
8 10 20
9 10 96
k15
15
1 2 55
1 3 58
1 4 19
1 5 10
1 6 7
1 7 81
1 8 47
1 9 3
1 10 70
1 11 81
1 12 12
1 13 5
1 14 53
1 15 36
2 3 95
2 4 23
2 5 86
2 6 83
2 7 94
2 8 69
2 9 59
2 10 22
2 11 30
2 12 80
2 13 40
2 14 87
2 15 72
3 4 36
3 5 91
3 6 90
3 7 72
3 8 61
3 9 54
3 10 58
3 11 14
3 12 11
3 13 75
3 14 66
3 15 8
4 5 32
4 6 96
4 7 87
4 8 75
4 9 91
4 10 41
4 11 100
4 12 33
4 13 72
4 14 25
4 15 53
5 6 35
5 7 19
5 8 21
5 9 18
5 10 27
5 11 16
5 12 3
5 13 75
5 14 19
5 15 93
6 7 46
6 8 30
6 9 85
6 10 11
6 11 69
6 12 84
6 13 75
6 14 13
6 15 9
7 8 5
7 9 54
7 10 94
7 11 22
7 12 70
7 13 34
7 14 42
7 15 99
8 9 16
8 10 48
8 11 68
8 12 50
8 13 96
8 14 83
8 15 4
9 10 2
9 11 21
9 12 39
9 13 27
9 14 96
9 15 79
10 11 10
10 12 52
10 13 32
10 14 28
10 15 53
11 12 64
11 13 63
11 14 78
11 15 2
12 13 76
12 14 43
12 15 67
13 14 12
13 15 49
14 15 91
Sparse 1
5
1 2 100
1 3 10
1 4 3
2 3 5
2 4 87
2 5 43
3 5 21
4 5 8
Sparse 2
10
1 2 23
1 3 23
1 4 49
2 4 1
2 6 3
3 6 2
4 5 54
5 7 5
5 8 12
6 7 1
6 8 12
7 9 45
7 10 23
8 9 3
8 10 64
9 10 9
Sparse 3
15
1 2 22
1 5 3
1 6 74
2 3 23
2 6 91
3 7 2
3 4 76
4 8 1
4 15 1
5 13 5
5 9 11
6 10 57
7 8 57
7 10 23
8 12 4
9 13 2
9 14 23
10 14 22
11 12 50
11 15 91
12 15 34
13 14 21
EOF
